<?xml version="1.0" encoding="utf-8"?>
<!-- Generator: Adobe Illustrator 23.0.2, SVG Export Plug-In . SVG Version: 6.00 Build 0)  -->
<svg version="1.1" id="圖層_1" xmlns="http://www.w3.org/2000/svg" xmlns:xlink="http://www.w3.org/1999/xlink" x="0px" y="0px"
	 viewBox="0 0 30 30" style="enable-background:new 0 0 30 30;" xml:space="preserve">
<style type="text/css">
	.st0{fill:#353B3F;}
	.st1{fill:#FFFFFF;}
</style>
<circle class="st0" cx="15" cy="15" r="13.86"/>
<path class="st1" d="M29,15c0,7.73-6.27,14-14,14S1,22.73,1,15C1,7.27,7.27,1,15,1S29,7.27,29,15z M15.38,5.63
	c-3.08,0-5.04,1.3-6.58,3.6c-0.2,0.3-0.13,0.7,0.15,0.92l1.96,1.49c0.29,0.22,0.71,0.17,0.94-0.12c1.01-1.28,1.7-2.02,3.23-2.02
	c1.15,0,2.58,0.74,2.58,1.86c0,0.85-0.7,1.28-1.84,1.92c-1.33,0.74-3.09,1.67-3.09,3.99v0.23c0,0.37,0.3,0.68,0.68,0.68h3.16
	c0.37,0,0.68-0.3,0.68-0.68v-0.08c0-1.61,4.7-1.67,4.7-6.02C21.95,8.11,18.56,5.63,15.38,5.63z M15,19.63c-1.43,0-2.6,1.16-2.6,2.6
	c0,1.43,1.16,2.6,2.6,2.6s2.6-1.16,2.6-2.6C17.6,20.79,16.43,19.63,15,19.63z"/>
</svg>
