<?xml version="1.0" encoding="utf-8"?>
<!-- Generator: Adobe Illustrator 22.1.0, SVG Export Plug-In . SVG Version: 6.00 Build 0)  -->
<svg version="1.1" id="圖層_1" xmlns="http://www.w3.org/2000/svg" xmlns:xlink="http://www.w3.org/1999/xlink" x="0px" y="0px"
	 viewBox="0 0 30 30" style="enable-background:new 0 0 30 30;" xml:space="preserve">
<style type="text/css">
	.st0{opacity:0;fill:#FFFFFF;}
	.st1{fill:#3E4447;}
</style>
<circle class="st0" cx="15" cy="15" r="14"/>
<path class="st1" d="M14.1,14.2l6.7-6.7c0.5-0.5,1.2-0.5,1.7,0l1.1,1.1c0.5,0.5,0.5,1.2,0,1.7l-4.8,4.8l4.8,4.8
	c0.5,0.5,0.5,1.2,0,1.7l-1.1,1.1c-0.5,0.5-1.2,0.5-1.7,0l-6.7-6.7C13.7,15.4,13.7,14.7,14.1,14.2z M4.6,14.2c-0.5,0.5-0.5,1.2,0,1.7
	l6.7,6.7c0.5,0.5,1.2,0.5,1.7,0l1.1-1.1c0.5-0.5,0.5-1.2,0-1.7l-4.8-4.8l4.8-4.8c0.5-0.5,0.5-1.2,0-1.7L13,7.5
	c-0.5-0.5-1.2-0.5-1.7,0L4.6,14.2L4.6,14.2z"/>
</svg>
