<?xml version="1.0" encoding="utf-8"?>
<!-- Generator: Adobe Illustrator 22.1.0, SVG Export Plug-In . SVG Version: 6.00 Build 0)  -->
<svg version="1.1" id="圖層_1" xmlns="http://www.w3.org/2000/svg" xmlns:xlink="http://www.w3.org/1999/xlink" x="0px" y="0px"
	 viewBox="0 0 30 30" style="enable-background:new 0 0 30 30;" xml:space="preserve">
<style type="text/css">
	.st0{fill:#FFFFFF;fill-opacity:0;}
	.st1{fill:#3E4447;}
</style>
<circle class="st0" cx="15" cy="15" r="14"/>
<path class="st1" d="M15.7,16L9,22.7c-0.5,0.5-1.2,0.5-1.7,0l-1.1-1.1c-0.5-0.5-0.5-1.2,0-1.7l4.8-4.8l-4.8-4.8
	c-0.5-0.5-0.5-1.2,0-1.7l1.1-1.1C7.8,7,8.5,7,9,7.5l6.7,6.7C16.1,14.7,16.1,15.4,15.7,16z M25.2,14.2l-6.7-6.7C18,7,17.3,7,16.8,7.5
	l-1.1,1c-0.5,0.5-0.5,1.2,0,1.7l4.8,4.8l-4.8,4.8c-0.5,0.5-0.5,1.2,0,1.7l1.1,1.1c0.5,0.5,1.2,0.5,1.7,0l6.7-6.7
	C25.7,15.4,25.7,14.7,25.2,14.2L25.2,14.2z"/>
</svg>
