<?xml version="1.0" encoding="utf-8"?>
<!-- Generator: Adobe Illustrator 22.1.0, SVG Export Plug-In . SVG Version: 6.00 Build 0)  -->
<svg version="1.1" id="圖層_1" xmlns="http://www.w3.org/2000/svg" xmlns:xlink="http://www.w3.org/1999/xlink" x="0px" y="0px"
	 viewBox="0 0 30 30" style="enable-background:new 0 0 30 30;" xml:space="preserve">
<style type="text/css">
	.st0{fill:#FFFFFF;}
	.st1{fill:#3E4447;}
</style>
<circle class="st0" cx="15" cy="15" r="14"/>
<path class="st1" d="M12.3,8.6l-2.9,2.9H5.9c-0.4,0-0.8,0.4-0.8,0.8v4.8c0,0.4,0.4,0.8,0.8,0.8h3.4l2.9,2.9c0.5,0.5,1.4,0.1,1.4-0.6
	V9.2C13.6,8.5,12.7,8.1,12.3,8.6z M20,7c-0.4-0.2-0.9-0.1-1.1,0.2c-0.2,0.4-0.1,0.9,0.2,1.1c2.2,1.4,3.5,3.9,3.5,6.5s-1.3,5-3.5,6.5
	c-0.4,0.2-0.5,0.7-0.2,1.1c0.2,0.4,0.7,0.5,1.1,0.2c2.6-1.7,4.2-4.6,4.2-7.8S22.6,8.7,20,7z M21,14.8c0-2.1-1.1-4-2.8-5.2
	c-0.4-0.2-0.9-0.1-1.1,0.2c-0.2,0.4-0.1,0.9,0.2,1.1c1.3,0.8,2.1,2.3,2.1,3.8s-0.8,3-2.1,3.8c-0.4,0.2-0.5,0.7-0.2,1.1
	c0.2,0.3,0.7,0.5,1.1,0.2C19.9,18.8,21,16.9,21,14.8z M16.3,12.2c-0.4-0.2-0.9-0.1-1.1,0.3c-0.2,0.4-0.1,0.9,0.3,1.1
	c0.4,0.2,0.7,0.7,0.7,1.1c0,0.5-0.3,0.9-0.7,1.1c-0.4,0.2-0.5,0.7-0.3,1.1c0.2,0.4,0.7,0.5,1.1,0.3c0.9-0.5,1.5-1.5,1.5-2.5
	S17.3,12.7,16.3,12.2L16.3,12.2z"/>
</svg>
